module gitlab.com/k8s-torrent/torrent

require (
	bazil.org/fuse v0.0.0-20180421153158-65cc252bf669
	github.com/alexflint/go-arg v1.1.0
	github.com/anacrolix/dht/v2 v2.2.1-0.20191103020011-1dba080fb358
	github.com/anacrolix/envpprof v1.0.1
	github.com/anacrolix/go-libutp v1.0.2
	github.com/anacrolix/log v0.3.1-0.20191001111012-13cede988bcd
	github.com/anacrolix/missinggo v1.2.1
	github.com/anacrolix/missinggo/perf v1.0.0
	github.com/anacrolix/missinggo/v2 v2.2.1-0.20191103010835-12360f38ced0
	github.com/anacrolix/sync v0.2.0
	github.com/anacrolix/tagflag v1.0.1
	github.com/anacrolix/torrent v1.7.1
	github.com/anacrolix/upnp v0.1.1
	github.com/anacrolix/utp v0.0.0-20180219060659-9e0e1d1d0572
	github.com/bradfitz/iter v0.0.0-20190303215204-33e6a9893b0c
	github.com/davecgh/go-spew v1.1.1
	github.com/dustin/go-humanize v1.0.0
	github.com/edsrzf/mmap-go v1.0.0
	github.com/etcd-io/bbolt v1.3.3
	github.com/fsnotify/fsnotify v1.4.7
	github.com/google/btree v1.0.0
	github.com/gosuri/uiprogress v0.0.1
	github.com/jessevdk/go-flags v1.4.0
	github.com/mattn/go-sqlite3 v1.10.0
	github.com/pkg/errors v0.8.1
	github.com/stretchr/testify v1.4.0
	go.etcd.io/bbolt v1.3.3 // indirect
	golang.org/x/net v0.0.0-20190628185345-da137c7871d7
	golang.org/x/time v0.0.0-20191024005414-555d28b269f0
	golang.org/x/xerrors v0.0.0-20190717185122-a985d3407aa7
)

go 1.13
